…
met_average
```

    ## # A tibble: 1,852 × 7
    ##    USAFID STATE  temp wind.sp atm.press    lon   lat
    ##     <int> <chr> <dbl>   <dbl>     <dbl>  <dbl> <dbl>
    ##  1 690150 CA     26.7    46.5     1009. -116.   34.3
    ##  2 720110 TX     28.9    33.2      NaN   -98.7  30.8
    ##  3 720113 MI     20.6    30.8      NaN   -83.2  42.5
    ##  4 720120 SC     24.4    36.4      NaN   -80.7  32.2
    ##  5 720137 IL     21.4    31.9      NaN   -88.4  41.4
    ##  6 720151 TX     27.6    39.4      NaN  -104.   30.4
    ##  7 720169 MO     23.5    37.8      NaN   -91    38.6
    ##  8 720170 IL     23.5    27.5      NaN   -88.8  37.2
    ##  9 720172 AR     23.6    24.1      NaN   -94.2  34.5
    ## 10 720175 AR     25.9    28.0     1011.  -91.8  33.6
    ## # ℹ 1,842 more rows
…
# Identify the closest station for each state
closest_stations <- met_new |>
  group_by(STATE) |>
  filter(distance == min(distance)) |>
  select(STATE, USAFID, lat, lon)

closest_stations
```

    ## # A tibble: 36 × 4
    ## # Groups:   STATE [36]
    ##    STATE USAFID   lat   lon
    ##    <chr>  <int> <dbl> <dbl>
    ##  1 NJ    720581  40.6 -74.2
    ##  2 ND    720855  48.8 -97.6
    ##  3 MN    722006  43.6 -96.2
    ##  4 FL    722067  30.2 -81.9
    ##  5 RI    722151  41.4 -71.8
    ##  6 MS    722165  35.0 -89.8
    ##  7 GA    722185  34.3 -83.8
    ##  8 IA    722331  42.5 -93.2
    ##  9 LA    722485  32.5 -93.7
    ## 10 TX    722587  33.6 -95.5
    ## # ℹ 26 more rows
…
``` r
# Find the median location for each state
state_midpoint <- met_average |>
  group_by(STATE) |>
  summarise(
    median_lat = median(lat, na.rm = TRUE),
    median_lon = median(lon, na.rm = TRUE)
  )
state_midpoint
```

    ## # A tibble: 48 × 3
    ##    STATE median_lat median_lon
    ##    <chr>      <dbl>      <dbl>
    ##  1 AL          32.6      -86.6
    ##  2 AR          35.3      -92.7
    ##  3 AZ          33.5     -112. 
    ##  4 CA          35.7     -120. 
    ##  5 CO          39.1     -105. 
    ##  6 CT          41.4      -72.8
    ##  7 DE          39.1      -75.5
    ##  8 FL          28.5      -81.8
    ##  9 GA          32.6      -83.5
    ## 10 IA          41.8      -93.5
    ## # ℹ 38 more rows
…
``` r
# Identify the closest station to the midpoint for each state
closest_to_mp <- met_avg_with_mp |>
  group_by(STATE) |>
  filter(distance_to_midpoint == min(distance_to_midpoint)) |>
  select(STATE, USAFID, lat, lon)
closest_to_mp
```

    ## # A tibble: 48 × 4
    ## # Groups:   STATE [48]
    ##    STATE USAFID   lat    lon
    ##    <chr>  <int> <dbl>  <dbl>
    ##  1 WV    720328  39    -80.3
    ##  2 AR    720401  35.6  -92.4
    ##  3 KY    720448  37.6  -84.8
    ##  4 LA    720468  30.6  -92.1
    ##  5 VA    720498  37.4  -77.5
    ##  6 ND    720867  48.4 -100. 
    ##  7 MO    720869  38.9  -92.7
    ##  8 OH    720928  40.3  -83.1
    ##  9 GA    722175  32.6  -83.6
    ## 10 NC    722201  35.6  -79.1
    ## # ℹ 38 more rows

``` r
all_stations <- bind_rows(
  closest_to_mp |>
    mutate(category = 'Geographic Midpoint'),
  closest_stations |>
    mutate(category = 'Temperature & Wind Speed Median')
)
all_stations
```

    ## # A tibble: 84 × 5
    ## # Groups:   STATE [48]
    ##    STATE USAFID   lat    lon category           
    ##    <chr>  <int> <dbl>  <dbl> <chr>              
    ##  1 WV    720328  39    -80.3 Geographic Midpoint
    ##  2 AR    720401  35.6  -92.4 Geographic Midpoint
    ##  3 KY    720448  37.6  -84.8 Geographic Midpoint
    ##  4 LA    720468  30.6  -92.1 Geographic Midpoint
    ##  5 VA    720498  37.4  -77.5 Geographic Midpoint
    ##  6 ND    720867  48.4 -100.  Geographic Midpoint
    ##  7 MO    720869  38.9  -92.7 Geographic Midpoint
    ##  8 OH    720928  40.3  -83.1 Geographic Midpoint
    ##  9 GA    722175  32.6  -83.6 Geographic Midpoint
    ## 10 NC    722201  35.6  -79.1 Geographic Midpoint
    ## # ℹ 74 more rows
…
``` r
temp_by_elevcat <- met_elev |>
  group_by(STATE, elev_cat) |>
  summarise(
    average_temp = mean(temp, na.rm = TRUE),
    .groups = 'drop'
  )
temp_by_elevcat
```

    ## # A tibble: 101 × 3
    ##    STATE elev_cat average_temp
    ##    <chr> <chr>           <dbl>
    ##  1 AL    Low              25.1
    ##  2 AL    Mid              23.8
    ##  3 AR    High             23.7
    ##  4 AR    Low              25.6
    ##  5 AR    Mid              24.4
    ##  6 AZ    High             23.9
    ##  7 AZ    Low              29.3
    ##  8 AZ    Mid              30.4
    ##  9 CA    High             18.1
    ## 10 CA    Low              18.3
    ## # ℹ 91 more rows

``` r
temp_pivot <- temp_by_elevcat |>
  pivot_wider(
    names_from = elev_cat,
    values_from = average_temp
  )
temp_pivot
```

    ## # A tibble: 48 × 4
    ##    STATE   Low   Mid  High
    ##    <chr> <dbl> <dbl> <dbl>
    ##  1 AL     25.1  23.8  NA  
    ##  2 AR     25.6  24.4  23.7
    ##  3 AZ     29.3  30.4  23.9
    ##  4 CA     18.3  18.8  18.1
    ##  5 CO     NA    NA    15.2
    ##  6 CT     19.4  18.8  NA  
    ##  7 DE     21.4  NA    NA  
    ##  8 FL     26.6  NA    NA  
    ##  9 GA     24.8  23.2  NA  
    ## 10 IA     NA    22.3  22.0
    ## # ℹ 38 more rows
…
``` r
median_per_station <- met |>
  group_by(USAFID) |>
  summarise(
    across(c(temp, atm.press), function(x) quantile(x, probs = .5, na.rm = TRUE))
  )
mps_lz <- lazy_dt(median_per_station)
mps_lz
```

    ## Source: local data table [1,852 x 3]
    ## Call:   `_DT1`
    ## 
    ##   USAFID  temp atm.press
    ##    <int> <dbl>     <dbl>
    ## 1 690150  26.7     1009.
    ## 2 720110  28         NA 
    ## 3 720113  20         NA 
    ## 4 720120  24         NA 
    ## 5 720137  21.1       NA 
    ## 6 720151  28.0       NA 
    ## # ℹ 1,846 more rows
    ## 
    ## # Use as.data.table()/as.data.frame()/as_tibble() to access results
…
``` r
mps_lz <- mps_lz |>
  mutate(
    lm_pred = predict(linear_model),
    sp_pred = predict(spline_model)
  ) |>
  collect()
mps_lz
```

    ## # A tibble: 1,085 × 5
    ##    USAFID  temp atm.press lm_pred   sp_pred
    ##     <int> <dbl>     <dbl>   <dbl> <dbl[1d]>
    ##  1 690150  26.7     1009.    23.6      22.7
    ##  2 720175  25       1011.    21.9      21.8
    ##  3 720198  13.9     1014.    17.9      17.1
    ##  4 720269  29.3     1006.    27.8      27.6
    ##  5 720306  23.3     1012.    20.7      21.2
    ##  6 720333  17       1014.    18.8      19.4
    ##  7 720334  21       1012.    20.0      19.9
    ##  8 720361  25       1012     20.6      20.9
    ##  9 720362  22.2     1006.    27.2      28.0
    ## 10 720363  23.3     1012.    21.2      22.1
    ## # ℹ 1,075 more rows
…
