…
``` r
mt_samples |> count(medical_specialty, sort = TRUE)
```

    ## # A tibble: 30 × 2
    ##    medical_specialty                 n
    ##    <chr>                         <int>
    ##  1 Surgery                        1103
    ##  2 Orthopedic                      355
    ##  3 Radiology                       273
    ##  4 General Medicine                259
    ##  5 Gastroenterology                223
    ##  6 Neurology                       223
    ##  7 SOAP / Chart / Progress Notes   166
    ##  8 Obstetrics / Gynecology         160
    ##  9 Urology                         158
    ## 10 Neurosurgery                     94
    ## # ℹ 20 more rows
…
``` r
# Words before "patient"
before <- tokens_bigram |>
  filter(str_detect(ngram, regex("\\spatient$"))) |>
  mutate(word = str_remove(ngram, "patient"),
         word = str_remove_all(word, " ")) |>
  group_by(word) |>
  summarise(n = sum(n)) |>
  arrange(desc(n))
before
```

    ## # A tibble: 208 × 2
    ##    word            n
    ##    <chr>       <int>
    ##  1 history        43
    ##  2 procedure      24
    ##  3 sample         20
    ##  4 female         15
    ##  5 male           15
    ##  6 indications    12
    ##  7 old            12
    ##  8 use            12
    ##  9 new            11
    ## 10 correct         9
    ## # ℹ 198 more rows
…
``` r
# Words after "patient"
after <- tokens_bigram |>
  filter(str_detect(ngram, regex("^patient\\s"))) |>
  mutate(word = str_remove(ngram, "patient"),
         word = str_remove_all(word, " ")) |>
  group_by(word) |>
  summarise(n = sum(n)) |>
  arrange(desc(n))
after
```

    ## # A tibble: 475 × 2
    ##    word           n
    ##    <chr>      <int>
    ##  1 tolerated    829
    ##  2 will         420
    ##  3 denies       246
    ##  4 states       231
    ##  5 received     118
    ##  6 underwent    116
    ##  7 understood    98
    ##  8 reports       93
    ##  9 presents      61
    ## 10 including     48
    ## # ℹ 465 more rows
…
``` r
lda5_top_terms <- 
  tidy(transcripts_lda5, matrix = "beta") |>
  group_by(topic) |>
  slice_max(order_by = beta, n = 10) |>
  ungroup() |>
  arrange(topic, -beta) |>
  mutate(term = reorder_within(term, beta, topic))
lda5_top_terms
```

    ## # A tibble: 50 × 3
    ##    topic term                     beta
    ##    <int> <fct>                   <dbl>
    ##  1     1 "\"patient\",___1"    0.0101 
    ##  2     1 "\"normal\",___1"     0.00846
    ##  3     1 "\"incision\",___1"   0.00753
    ##  4     1 "\"using\",___1"      0.00563
    ##  5     1 "\"right\",___1"      0.00556
    ##  6     1 "\"procedure\",___1"  0.00537
    ##  7     1 "\"used\",___1"       0.00514
    ##  8     1 "\"anesthesia\",___1" 0.00489
    ##  9     1 "\"performed\",___1"  0.00472
    ## 10     1 "\"general\",___1"    0.00456
    ## # ℹ 40 more rows

``` r
lda3_top_terms <- 
  tidy(transcripts_lda3, matrix = "beta") |>
  group_by(topic) |>
  slice_max(order_by = beta, n = 10) |>
  ungroup() |>
  arrange(topic, -beta) |>
  mutate(term = reorder_within(term, beta, topic))
lda3_top_terms
```

    ## # A tibble: 30 × 3
    ##    topic term                     beta
    ##    <int> <fct>                   <dbl>
    ##  1     1 "\"normal\",___1"     0.00846
    ##  2     1 "\"patient\",___1"    0.00724
    ##  3     1 "\"procedure\",___1"  0.00614
    ##  4     1 "\"anesthesia\",___1" 0.00610
    ##  5     1 "\"incision\",___1"   0.00602
    ##  6     1 "\"pain\",___1"       0.00573
    ##  7     1 "\"right\",___1"      0.00566
    ##  8     1 "\"time\",___1"       0.00511
    ##  9     1 "\"left\",___1"       0.00470
    ## 10     1 "\"used\",___1"       0.00460
    ## # ℹ 20 more rows
…
